%YAML 1.1
%TAG !u! tag:unity3d.com,2011:
--- !u!1 &3352403532633079649
GameObject:
  m_ObjectHideFlags: 0
  m_CorrespondingSourceObject: {fileID: 0}
  m_PrefabInstance: {fileID: 0}
  m_PrefabAsset: {fileID: 0}
  serializedVersion: 6
  m_Component:
  - component: {fileID: 9067374073543314781}
  - component: {fileID: 6102792390026998872}
  - component: {fileID: 2701570556049120060}
  m_Layer: 0
  m_Name: Hulk
  m_TagString: Untagged
  m_Icon: {fileID: 0}
  m_NavMeshLayer: 0
  m_StaticEditorFlags: 0
  m_IsActive: 1
--- !u!4 &9067374073543314781
Transform:
  m_ObjectHideFlags: 0
  m_CorrespondingSourceObject: {fileID: 0}
  m_PrefabInstance: {fileID: 0}
  m_PrefabAsset: {fileID: 0}
  m_GameObject: {fileID: 3352403532633079649}
  m_LocalRotation: {x: 0, y: 0, z: 0, w: 1}
  m_LocalPosition: {x: -38.978115, y: -29.863722, z: -53.895996}
  m_LocalScale: {x: 1, y: 1, z: 1}
  m_ConstrainProportionsScale: 0
  m_Children: []
  m_Father: {fileID: 0}
  m_RootOrder: 0
  m_LocalEulerAnglesHint: {x: 0, y: 0, z: 0}
--- !u!114 &6102792390026998872
MonoBehaviour:
  m_ObjectHideFlags: 0
  m_CorrespondingSourceObject: {fileID: 0}
  m_PrefabInstance: {fileID: 0}
  m_PrefabAsset: {fileID: 0}
  m_GameObject: {fileID: 3352403532633079649}
  m_Enabled: 1
  m_EditorHideFlags: 0
  m_Script: {fileID: 11500000, guid: 5d34f93554d81ce48b699e88d753d042, type: 3}
  m_Name: 
  m_EditorClassIdentifier: 
  Name: Slum
  Health: 3000
  Speed: 2
  KnockBack: 0.3
  RegerationHP: 5
  RegerationSpeed: 0.2
  PainShock: 0.3
  PainShockSpeed: 0.9
  ZombieKnife: {fileID: 5769424177661982811, guid: 35af392aa3f92744687793e1d1e23acd,
    type: 3}
  FeetClips:
  - {fileID: 8300000, guid: aa01ada603775fc4785f84e8d2753008, type: 3}
  - {fileID: 8300000, guid: 2062a627e3d0f8644878694fac612a09, type: 3}
  - {fileID: 8300000, guid: 7e172d7178a63ec4c9450a3e696d55b5, type: 3}
  - {fileID: 8300000, guid: ca580708599e8dc4687c69ac42d592d4, type: 3}
  DeathClips:
  - {fileID: 8300000, guid: 0a3390da551d36b439b898ef595ff66d, type: 3}
  - {fileID: 8300000, guid: 8ebddf667b9060b43940d28e10353f5b, type: 3}
  - {fileID: 8300000, guid: e1ddc50eee6810e42a98228007606c5d, type: 3}
  PainClips:
  - {fileID: 8300000, guid: 1569024b06bac94458374193c55c3a19, type: 3}
  - {fileID: 8300000, guid: ce523ebf219be0746984bb2c5d219e5d, type: 3}
  - {fileID: 8300000, guid: 7e2b89855dd175c4a89456eb446a520c, type: 3}
  - {fileID: 8300000, guid: 80ae9143ab6d0b84ea911427ab6b3649, type: 3}
  - {fileID: 8300000, guid: dbc7f771c66852e49812bd68e405c301, type: 3}
  InfectionClips:
  - {fileID: 8300000, guid: d5fd83b8736b4814eb2d827ca14cd5c5, type: 3}
  - {fileID: 8300000, guid: 7e3e71acdd31d8641b934c84b3b6dbee, type: 3}
  - {fileID: 8300000, guid: 65ff177c52de6c040aa54e4baf923191, type: 3}
  - {fileID: 8300000, guid: 76d1c7bc49e6f2044939fac2e81a532b, type: 3}
  - {fileID: 8300000, guid: 3b5e76545cc04c24883379366149d160, type: 3}
--- !u!114 &2701570556049120060
MonoBehaviour:
  m_ObjectHideFlags: 0
  m_CorrespondingSourceObject: {fileID: 0}
  m_PrefabInstance: {fileID: 0}
  m_PrefabAsset: {fileID: 0}
  m_GameObject: {fileID: 3352403532633079649}
  m_Enabled: 1
  m_EditorHideFlags: 0
  m_Script: {fileID: 11500000, guid: 9b91ecbcc199f4492b9a91e820070131, type: 3}
  m_Name: 
  m_EditorClassIdentifier: 
  sceneId: 0
  serverOnly: 0
  visible: 0
  m_AssetId: 1202d326d94d3b142854fcdc9c7bee46
  hasSpawned: 0
