%YAML 1.1
%TAG !u! tag:unity3d.com,2011:
--- !u!74 &7400000
AnimationClip:
  m_ObjectHideFlags: 0
  m_CorrespondingSourceObject: {fileID: 0}
  m_PrefabInstance: {fileID: 0}
  m_PrefabAsset: {fileID: 0}
  m_Name: Run
  serializedVersion: 6
  m_Legacy: 0
  m_Compressed: 0
  m_UseHighQualityCurve: 1
  m_RotationCurves: []
  m_CompressedRotationCurves: []
  m_EulerCurves: []
  m_PositionCurves: []
  m_ScaleCurves: []
  m_FloatCurves: []
  m_PPtrCurves:
  - curve:
    - time: 0
      value: {fileID: 21300000, guid: 55f32f59b49e1444dbb08968e92844ad, type: 3}
    - time: 0.016666668
      value: {fileID: 21300000, guid: 15b7b46c04e8aa34c8973140808fdc16, type: 3}
    - time: 0.033333335
      value: {fileID: 21300000, guid: 41e7cc098463da24f85b362535d50760, type: 3}
    - time: 0.05
      value: {fileID: 21300000, guid: e9f0dce098a4c294593a67e0c551149f, type: 3}
    - time: 0.06666667
      value: {fileID: 21300000, guid: 15555d27553ba274689212d68501fd1f, type: 3}
    - time: 0.083333336
      value: {fileID: 21300000, guid: 95963ad7e8e2e714cba14bbd012a4106, type: 3}
    - time: 0.1
      value: {fileID: 21300000, guid: 12464fff4b960974abd4e5ac8653f4cc, type: 3}
    - time: 0.11666667
      value: {fileID: 21300000, guid: 2fd93c3963467e445a289f83b7566610, type: 3}
    - time: 0.13333334
      value: {fileID: 21300000, guid: 75b6530c8814c6243b3c9253a1f44a52, type: 3}
    - time: 0.15
      value: {fileID: 21300000, guid: b1a6fad044549fb429417c9bf8821699, type: 3}
    - time: 0.18333334
      value: {fileID: 21300000, guid: 7591f58927de4b547b35058ab69b8af3, type: 3}
    - time: 0.2
      value: {fileID: 21300000, guid: 8079eb525306740428f66b822920cebe, type: 3}
    - time: 0.21666667
      value: {fileID: 21300000, guid: 81b834166bddfa24bbeeb6bcc6ce8648, type: 3}
    - time: 0.23333333
      value: {fileID: 21300000, guid: be2705a0b5d47c347b0a72c305ccd315, type: 3}
    - time: 0.25
      value: {fileID: 21300000, guid: a650e8bd19b189f47b85bdad13cc8a2c, type: 3}
    - time: 0.26666668
      value: {fileID: 21300000, guid: 5a1ac44a4e19e6643a102a5b6a8eee52, type: 3}
    - time: 0.28333333
      value: {fileID: 21300000, guid: abc5c5ae1794af543b6a9524bf9caa20, type: 3}
    - time: 0.3
      value: {fileID: 21300000, guid: 313deb6adbc999949b0b9c01880abe47, type: 3}
    - time: 0.31666666
      value: {fileID: 21300000, guid: 72a6692ebc1bc334d998a1e9d7534da1, type: 3}
    - time: 0.33333334
      value: {fileID: 21300000, guid: b4508f183034ae74f85790c58a865a1d, type: 3}
    attribute: m_Sprite
    path: 
    classID: 212
    script: {fileID: 0}
  m_SampleRate: 60
  m_WrapMode: 0
  m_Bounds:
    m_Center: {x: 0, y: 0, z: 0}
    m_Extent: {x: 0, y: 0, z: 0}
  m_ClipBindingConstant:
    genericBindings:
    - serializedVersion: 2
      path: 0
      attribute: 0
      script: {fileID: 0}
      typeID: 212
      customType: 23
      isPPtrCurve: 1
    pptrCurveMapping:
    - {fileID: 21300000, guid: 55f32f59b49e1444dbb08968e92844ad, type: 3}
    - {fileID: 21300000, guid: 15b7b46c04e8aa34c8973140808fdc16, type: 3}
    - {fileID: 21300000, guid: 41e7cc098463da24f85b362535d50760, type: 3}
    - {fileID: 21300000, guid: e9f0dce098a4c294593a67e0c551149f, type: 3}
    - {fileID: 21300000, guid: 15555d27553ba274689212d68501fd1f, type: 3}
    - {fileID: 21300000, guid: 95963ad7e8e2e714cba14bbd012a4106, type: 3}
    - {fileID: 21300000, guid: 12464fff4b960974abd4e5ac8653f4cc, type: 3}
    - {fileID: 21300000, guid: 2fd93c3963467e445a289f83b7566610, type: 3}
    - {fileID: 21300000, guid: 75b6530c8814c6243b3c9253a1f44a52, type: 3}
    - {fileID: 21300000, guid: b1a6fad044549fb429417c9bf8821699, type: 3}
    - {fileID: 21300000, guid: 7591f58927de4b547b35058ab69b8af3, type: 3}
    - {fileID: 21300000, guid: 8079eb525306740428f66b822920cebe, type: 3}
    - {fileID: 21300000, guid: 81b834166bddfa24bbeeb6bcc6ce8648, type: 3}
    - {fileID: 21300000, guid: be2705a0b5d47c347b0a72c305ccd315, type: 3}
    - {fileID: 21300000, guid: a650e8bd19b189f47b85bdad13cc8a2c, type: 3}
    - {fileID: 21300000, guid: 5a1ac44a4e19e6643a102a5b6a8eee52, type: 3}
    - {fileID: 21300000, guid: abc5c5ae1794af543b6a9524bf9caa20, type: 3}
    - {fileID: 21300000, guid: 313deb6adbc999949b0b9c01880abe47, type: 3}
    - {fileID: 21300000, guid: 72a6692ebc1bc334d998a1e9d7534da1, type: 3}
    - {fileID: 21300000, guid: b4508f183034ae74f85790c58a865a1d, type: 3}
  m_AnimationClipSettings:
    serializedVersion: 2
    m_AdditiveReferencePoseClip: {fileID: 0}
    m_AdditiveReferencePoseTime: 0
    m_StartTime: 0
    m_StopTime: 0.35000002
    m_OrientationOffsetY: 0
    m_Level: 0
    m_CycleOffset: 0
    m_HasAdditiveReferencePose: 0
    m_LoopTime: 1
    m_LoopBlend: 0
    m_LoopBlendOrientation: 0
    m_LoopBlendPositionY: 0
    m_LoopBlendPositionXZ: 0
    m_KeepOriginalOrientation: 0
    m_KeepOriginalPositionY: 1
    m_KeepOriginalPositionXZ: 0
    m_HeightFromFeet: 0
    m_Mirror: 0
  m_EditorCurves: []
  m_EulerEditorCurves: []
  m_HasGenericRootTransform: 0
  m_HasMotionFloatCurves: 0
  m_Events: []
